{
	"$schema": "http://json-schema.org/draft-07/schema#",
	"title": "Payment Request",
    
    "allOf": [
        {
            "$ref": "https://gitlab.com/ifdef/blip-schema/raw/master/v1/version/version.json"
        },
        {
            "type": "object",
            "properties": {
                "origin": { "enum": ["SWISH"]},
                "type": { "enum": ["PAY_RESPONSE"] },
                "data": {
                    "type": "object",
                    "properties": {
                        "response": {"enum": ["pay", "decline"]}
                    },
                    "required": ["response"]
                }
            },
            "required": ["origin", "type", "data"]
        }
    ]
}
