{
	"$schema": "http://json-schema.org/draft-07/schema#",
	"title": "Payment Request",
    
    "allOf": [
        {
            "$ref": "https://gitlab.com/ifdef/blip-schema/raw/master/v1/version/version.json"
        },
        {
            "type": "object",
            "properties": {
                "origin": { "enum": ["SWISH"]},
                "type": { "enum": ["PAYMENT_REFUND"] },
                "data": {
                    "allOf": [
                        { "$ref": "https://gitlab.com/ifdef/blip-schema/raw/master/v1/swish/data/payment.json" },
                        {
                            "type": "object",
                            "properties": {
                                "originalPaymentReference": {"type": "string"},
                                "callbackURL": {
                                    "type": "string",
                                    "format": "uri",
                                    "pattern": "^https"
                                }
                            },
                            "required": ["originalPaymentReference", "callbackURL"]
                        }
                    ]
                } 
            },
            "required": ["origin", "type", "data"]
        }
    ]
}